…
Below is a table summarizing the number of items ordered from aisle. In
total, there are 134 aisles, with fresh vegetables and fresh fruits
holding the most items ordered by far.

``` r
instacart %>% 
  count(aisle) %>% 
  arrange(desc(n))
```

    ## # A tibble: 134 × 2
    ##    aisle                              n
    ##    <chr>                          <int>
    ##  1 fresh vegetables              150609
    ##  2 fresh fruits                  150473
    ##  3 packaged vegetables fruits     78493
    ##  4 yogurt                         55240
    ##  5 packaged cheese                41699
    ##  6 water seltzer sparkling water  36617
    ##  7 milk                           32644
    ##  8 chips pretzels                 31269
    ##  9 soy lactosefree                26240
    ## 10 bread                          23635
    ## # … with 124 more rows
…
    ## Rows: 35 Columns: 1443
    ## ── Column specification ────────────────────────────────────────────────────────
    ## Delimiter: ","
    ## chr    (1): day
    ## dbl (1442): week, day_id, activity.1, activity.2, activity.3, activity.4, ac...
    ## 
    ## ℹ Use `spec()` to retrieve the full column specification for this data.
    ## ℹ Specify the column types or set `show_col_types = FALSE` to quiet this message.

``` r
accel_df
```

    ## # A tibble: 50,400 × 6
    ##     week day_id day    weekday_vs_weekend minutes_of_a_day activity_counts
    ##    <int>  <int> <fct>  <fct>                         <int>           <dbl>
    ##  1     1      1 Friday weekday                           1            88.4
    ##  2     1      1 Friday weekday                           2            82.2
    ##  3     1      1 Friday weekday                           3            64.4
    ##  4     1      1 Friday weekday                           4            70.0
    ##  5     1      1 Friday weekday                           5            75.0
    ##  6     1      1 Friday weekday                           6            66.3
    ##  7     1      1 Friday weekday                           7            53.8
    ##  8     1      1 Friday weekday                           8            47.8
    ##  9     1      1 Friday weekday                           9            55.5
    ## 10     1      1 Friday weekday                          10            43.0
    ## # … with 50,390 more rows
…
``` r
noaa_df %>% 
  group_by(snow) %>% 
  summarize(snowfall = n()) %>% 
  arrange(desc(snowfall))
```

    ## # A tibble: 282 × 2
    ##     snow snowfall
    ##    <int>    <int>
    ##  1     0  2008508
    ##  2    NA   381221
    ##  3    25    31022
    ##  4    13    23095
    ##  5    51    18274
    ##  6    76    10173
    ##  7     8     9962
    ##  8     5     9748
    ##  9    38     9197
    ## 10     3     8790
    ## # … with 272 more rows
…
